{
  "page1": {
    "currentPage": 1,
    "perPage": 7,
    "lastPage": 2,
    "total": 10,
    "from": 1,
    "to": 7,
    "data": [
      {"id":"1","name": "Finland", "capital": "Helsinki"},
      {"id":"2","name": "Norway", "capital": "Oslo"},
      {"id":"3","name": "Japan", "capital": "Tokyo"},
      {"id":"4","name": "Germany", "capital": "Berlin"},
      {"id":"5","name": "Russia", "capital": "Moscow"},
      {"id":"6","name": "Kenya", "capital": "Nairobi"},
      {"id":"7","name": "Sweden", "capital": "Stockholm"}
    ]
  },
  "page2": {
    "currentPage": 2,
    "perPage": 7,
    "lastPage": 2,
    "total": 10,
    "from": 2,
    "to": 10,
    "data": [
      {"id":"8","name": "123", "capital": "Helsdasdasdinki"},
      {"id":"9","name": "Norw123ay", "capital": "Oslasdasdo"},
      {"id":"10","name": "3123", "capital": "eqweqw"}
    ]
  }
}
